…
# now we want the head movement data for every trial.
# we can do this by reading each filename given in the `*_movement_filename` column.
# then we can use `unnest` to give 1 row per timestep. 

posture_movement <- posture_trials %>% 
  mutate(center_eye_movement = map(file.path("data", directory, center_eye_movement_filename), read_csv)) %>% 
  unnest()

# output (notice many more rows, and the `pos_*` columns)

# # A tibble: 2,310 x 18
#    directory experiment ppid  session_num trial_num block_num trial_num_in_bl~ start_time end_time assessment_type
#    <chr>     <chr>      <chr>       <dbl>     <dbl>     <dbl>            <dbl>      <dbl>    <dbl> <chr>          
#  1 psat-vr-~ psat-vr-1~ P_19~           1         1         1                1       37.0     47.0 Vision         
#  2 psat-vr-~ psat-vr-1~ P_19~           1         1         1                1       37.0     47.0 Vision         
#  3 psat-vr-~ psat-vr-1~ P_19~           1         1         1                1       37.0     47.0 Vision         
#  4 psat-vr-~ psat-vr-1~ P_19~           1         1         1                1       37.0     47.0 Vision         
#  5 psat-vr-~ psat-vr-1~ P_19~           1         1         1                1       37.0     47.0 Vision         
#  6 psat-vr-~ psat-vr-1~ P_19~           1         1         1                1       37.0     47.0 Vision         
#  7 psat-vr-~ psat-vr-1~ P_19~           1         1         1                1       37.0     47.0 Vision         
#  8 psat-vr-~ psat-vr-1~ P_19~           1         1         1                1       37.0     47.0 Vision         
#  9 psat-vr-~ psat-vr-1~ P_19~           1         1         1                1       37.0     47.0 Vision         
# 10 psat-vr-~ psat-vr-1~ P_19~           1         1         1                1       37.0     47.0 Vision         
# # ... with 2,300 more rows, and 8 more variables: center_eye_movement_filename <chr>, time <dbl>, pos_x <dbl>,
# #   pos_y <dbl>, pos_z <dbl>, rot_x <dbl>, rot_y <dbl>, rot_z <dbl>
…
